{
  "Сказать королю, что его безопасность для вас превыше всего, остальное вторично.": {
    "data": "Король лишь смиренно кивает, предоставляя возможность вам вести его к спасению.",
    "stat": {}
  },
  "Проигнорировать короля и продолжить побег.": {
    "data": "Вы ведете Короля к выходу из тронного зала.",
    "stat": {}
  }
}
