{
  "0": {
    "type": "ch",
    "data":{
    "data":"Пытаясь открыть сундук вы понимаете, что никакой ключ его не откроет, так как он закрыт при помощи магии.",
    "answer":["Назад"]}
  },
  "1": {
    "type": "def",
    "mark": "fn",
    "folder": "Комната мага",
    "data": 0,
    "return": "Обыск-1"
  }
}
