{
  "0": {
    "type": "t",
    "data": "Глядя на шпионов вы обращаетесь к ним с недоверием: -Кто вы?"
  },
  "1": {
    "type": "ch",
    "data":{
    "data":"-Мы разведчики западного королевства, нас послал наш король с целью предотвращения покушения на вашего короля.",
    "answer":["Расскажите подробнее про это предполагаемое покушение.",
              "Зачем вам спасать нашего короля?",
              "*Ухмыльнувшись* Откуда мне знать, что вы не лжёте?\n Вы же все таки разведчики, было бы удивительно, если все это было правдой.",
              "Назад"]}
  },
  "2": {
    "type": "def",
    "mark": "fn",
    "folder": "Допрос шпионов",
    "data":"Допрос-2",
    "return": "Пролог2"
  }
}
