{
  "0": {
    "type": "ch",
    "data":{
    "data":"-Ваш Король находится в напряженных отношениях со своим придворным магом. Мы не знаем причину этой конфронтации, но маг выразил недовольство королём в одном из своих писем придворному магу южного королевства. Я процитирую: «Мой Король, несмотря на то сколько я для него сделал, категорически отказывается исполнить мою просьбу, с ним пора заканчивать».",
    "answer":["Этого не может быть, никто никогда не видел Короля и мага спорящими."]}
  },
  "1": {
    "type": "def",
    "mark": "fn",
    "folder": "Допрос шпионов",
    "data":"Допрос-2-1",
    "return": 0
  }
}
