{
  "0": {
    "type": "t",
    "data":"После допроса вы передали разведчиков страже и вышли из комнаты."
  },
  "1": {
    "type": "ch",
    "data":{
    "data":"Направляясь в тронный зал, вы видите незапертую дверь в покои мага. Возможно это ваш единственный шанс поискать заговорщическое письмо его покоях.",
    "answer":["Осторожно войти."]}
  },
  "2": {
    "type": "def",
    "mark": "fn",
    "folder": "Комната мага",
    "data":"Обыск",
    "return": 0
  }
}
